<!-- Generated by IcoMoon.io -->
<svg version="1.1" xmlns="http://www.w3.org/2000/svg" width="40" height="40" viewBox="0 0 40 40">
<title>google-drive</title>
<path d="M16.35 26l-6.648 12h23.648l6.65-12h-23.65zM11.73 4.598l-11.73 21.23 6.744 12.168 11.732-21.23-6.746-12.168zM38.89 24l-12.192-22h-13.49l12.176 22h13.506z"></path>
</svg>
